{
  "shell_port": 37809,
  "iopub_port": 55105,
  "stdin_port": 33321,
  "control_port": 48465,
  "hb_port": 45689,
  "ip": "127.0.0.1",
  "key": "15747bbc-1a8564a5cd1f97a7d0d6af77",
  "transport": "tcp",
  "signature_scheme": "hmac-sha256",
  "kernel_name": ""
}