{
  "shell_port": 44079,
  "iopub_port": 53409,
  "stdin_port": 59767,
  "control_port": 33353,
  "hb_port": 51529,
  "ip": "127.0.0.1",
  "key": "bdb1ec98-a666a16015eca270182a04c2",
  "transport": "tcp",
  "signature_scheme": "hmac-sha256",
  "kernel_name": ""
}