{
  "base_url": "/user/zimu_wang-tp_1-kzrmlev2/",
  "hostname": "0.0.0.0",
  "notebook_dir": "/home/jovyan",
  "password": false,
  "pid": 27,
  "port": 8888,
  "secure": false,
  "sock": "",
  "token": "PJc9R0nuRH2EmEvAPIEB_A",
  "url": "http://0.0.0.0:8888/user/zimu_wang-tp_1-kzrmlev2/"
}